…
``` r
pft_results <- tidyr::unnest(results, df_pft)
pft_results
```

    ## # A tibble: 204 x 43
    ##    basename df_scalar df_cohort df_soil datetime              pft NPLANT_PY
    ##    <chr>    <list>    <list>    <list>  <dttm>              <int>     <dbl>
    ##  1 test-ed… <tibble … <tibble … <tibbl… 2000-01-01 00:00:00     1    0.0771
    ##  2 test-ed… <tibble … <tibble … <tibbl… 2000-01-01 00:00:00     2    0.0771
    ##  3 test-ed… <tibble … <tibble … <tibbl… 2000-01-01 00:00:00     3    0.0773
    ##  4 test-ed… <tibble … <tibble … <tibbl… 2000-01-01 00:00:00     4    0.0775
    ##  5 test-ed… <tibble … <tibble … <tibbl… 2000-01-01 00:00:00     5    0     
    ##  6 test-ed… <tibble … <tibble … <tibbl… 2000-01-01 00:00:00     6    0     
    ##  7 test-ed… <tibble … <tibble … <tibbl… 2000-01-01 00:00:00     7    0     
    ##  8 test-ed… <tibble … <tibble … <tibbl… 2000-01-01 00:00:00     8    0     
    ##  9 test-ed… <tibble … <tibble … <tibbl… 2000-01-01 00:00:00     9    0     
    ## 10 test-ed… <tibble … <tibble … <tibbl… 2000-01-01 00:00:00    10    0     
    ## # … with 194 more rows, and 36 more variables: AGB_PY <dbl>, WAI_PY <dbl>,
    ## #   BASAL_AREA_PY <dbl>, BDEADA_PY <dbl>, BDEADB_PY <dbl>, BTIMBER_PY <dbl>,
    ## #   BSAPWOODA_PY <dbl>, BSAPWOODB_PY <dbl>, BSEEDS_PY <dbl>, BYIELD_PY <dbl>,
    ## #   BDEADA_N_PY <dbl>, BDEADB_N_PY <dbl>, BSAPWOODA_N_PY <dbl>,
    ## #   BSAPWOODB_N_PY <dbl>, BSEEDS_N_PY <dbl>, MMEAN_THBARK_PY <dbl>,
    ## #   MMEAN_LAI_PY <dbl>, MMEAN_BLEAF_PY <dbl>, MMEAN_BROOT_PY <dbl>,
    ## #   MMEAN_BBARKA_PY <dbl>, MMEAN_BBARKB_PY <dbl>, MMEAN_BALIVE_PY <dbl>,
    ## #   MMEAN_BSTORAGE_PY <dbl>, MMEAN_BLEAF_N_PY <dbl>, MMEAN_BROOT_N_PY <dbl>,
    ## #   MMEAN_BBARKA_N_PY <dbl>, MMEAN_BBARKB_N_PY <dbl>, MMEAN_BALIVE_N_PY <dbl>,
…
